Data Simulation for Generalized Linear Models
…
f <- list(
  prob ~ I(1 * x1) + fa(sex, beta = c(0, -1), labels = c("male", "female")),
  size ~ I(1)
  )

model_frame <- model_frame(f, n = 100)
formula = attr(model_frame, "formula")
link_inv = list(psych::logistic, identity)
generator = rbinom
responses = c("response")
effects_save = FALSE
model_response_lm(model_frame, link_inv = list(psych::logistic, identity),
                  generator = rbinom)

#> # A tibble: 100 x 6
#>       id     x1 sex      prob  size response
#>    <int>  <dbl> <fct>   <dbl> <dbl>    <int>
#>  1     1  0.484 female 0.374   1.00        0
#>  2     2 -1.74  female 0.0609  1.00        0
#>  3     3  1.09  female 0.521   1.00        0
#>  4     4  1.07  male   0.745   1.00        1
#>  5     5  0.848 male   0.700   1.00        1
#>  6     6  1.58  male   0.829   1.00        1
#>  7     7 -0.521 female 0.179   1.00        0
#>  8     8 -0.250 female 0.223   1.00        0
#>  9     9 -1.26  male   0.222   1.00        0
#> 10    10 -1.50  female 0.0758  1.00        0
#> # ... with 90 more rows
…
